{
 "custom_fields": [
  {
   "_assign": null,
   "_comments": null,
   "_liked_by": null,
   "_user_tags": null,
   "allow_on_submit": 0,
   "bold": 0,
   "collapsible": 0,
   "collapsible_depends_on": null,
   "columns": 0,
   "creation": "2019-07-24 07:36:28.895838",
   "default": null,
   "depends_on": null,
   "description": null,
   "docstatus": 0,
   "dt": "Contact",
   "fetch_from": null,
   "fetch_if_empty": 0,
   "fieldname": "personal_info",
   "fieldtype": "Section Break",
   "hidden": 0,
   "idx": 16,
   "ignore_user_permissions": 0,
   "ignore_xss_filter": 0,
   "in_global_search": 0,
   "in_list_view": 0,
   "in_standard_filter": 0,
   "insert_after": "image",
   "label": "Personal Info",
   "modified": "2019-02-02 21:09:00.966822",
   "modified_by": "Administrator",
   "name": "Contact-personal_info",
   "no_copy": 0,
   "options": null,
   "owner": "Administrator",
   "parent": null,
   "parentfield": null,
   "parenttype": null,
   "permlevel": 0,
   "precision": "",
   "print_hide": 0,
   "print_hide_if_no_value": 0,
   "print_width": null,
   "read_only": 0,
   "report_hide": 0,
   "reqd": 0,
   "search_index": 0,
   "translatable": 0,
   "unique": 0,
   "width": null
  },
  {
   "_assign": null,
   "_comments": null,
   "_liked_by": null,
   "_user_tags": null,
   "allow_on_submit": 0,
   "bold": 0,
   "collapsible": 0,
   "collapsible_depends_on": null,
   "columns": 0,
   "creation": "2019-07-24 07:36:29.295393",
   "default": null,
   "depends_on": null,
   "description": null,
   "docstatus": 0,
   "dt": "Contact",
   "fetch_from": null,
   "fetch_if_empty": 0,
   "fieldname": "column_break_14",
   "fieldtype": "Column Break",
   "hidden": 0,
   "idx": 18,
   "ignore_user_permissions": 0,
   "ignore_xss_filter": 0,
   "in_global_search": 0,
   "in_list_view": 0,
   "in_standard_filter": 0,
   "insert_after": "birthdate",
   "label": null,
   "modified": "2019-02-02 21:09:02.727755",
   "modified_by": "Administrator",
   "name": "Contact-column_break_14",
   "no_copy": 0,
   "options": null,
   "owner": "Administrator",
   "parent": null,
   "parentfield": null,
   "parenttype": null,
   "permlevel": 0,
   "precision": "",
   "print_hide": 0,
   "print_hide_if_no_value": 0,
   "print_width": null,
   "read_only": 0,
   "report_hide": 0,
   "reqd": 0,
   "search_index": 0,
   "translatable": 0,
   "unique": 0,
   "width": null
  },
  {
   "_assign": null,
   "_comments": null,
   "_liked_by": null,
   "_user_tags": null,
   "allow_on_submit": 0,
   "bold": 0,
   "collapsible": 0,
   "collapsible_depends_on": null,
   "columns": 0,
   "creation": "2019-07-24 07:36:29.463848",
   "default": null,
   "depends_on": "is_deceased",
   "description": null,
   "docstatus": 0,
   "dt": "Contact",
   "fetch_from": null,
   "fetch_if_empty": 0,
   "fieldname": "yhartziet",
   "fieldtype": "Date",
   "hidden": 0,
   "idx": 20,
   "ignore_user_permissions": 0,
   "ignore_xss_filter": 0,
   "in_global_search": 0,
   "in_list_view": 0,
   "in_standard_filter": 0,
   "insert_after": "is_deceased",
   "label": "Yhartziet",
   "modified": "2019-02-02 21:12:33.293994",
   "modified_by": "Administrator",
   "name": "Contact-yhartziet",
   "no_copy": 0,
   "options": null,
   "owner": "Administrator",
   "parent": null,
   "parentfield": null,
   "parenttype": null,
   "permlevel": 0,
   "precision": "",
   "print_hide": 0,
   "print_hide_if_no_value": 0,
   "print_width": null,
   "read_only": 0,
   "report_hide": 0,
   "reqd": 0,
   "search_index": 0,
   "translatable": 0,
   "unique": 0,
   "width": null
  },
  {
   "_assign": null,
   "_comments": null,
   "_liked_by": null,
   "_user_tags": null,
   "allow_on_submit": 0,
   "bold": 0,
   "collapsible": 0,
   "collapsible_depends_on": null,
   "columns": 0,
   "creation": "2019-07-23 19:33:34.913170",
   "default": null,
   "depends_on": null,
   "description": null,
   "docstatus": 0,
   "dt": "Contact",
   "fetch_from": null,
   "fetch_if_empty": 0,
   "fieldname": "nickname",
   "fieldtype": "Data",
   "hidden": 0,
   "idx": 5,
   "ignore_user_permissions": 0,
   "ignore_xss_filter": 0,
   "in_global_search": 0,
   "in_list_view": 0,
   "in_standard_filter": 0,
   "insert_after": "last_name",
   "label": "Prefers to Be Called",
   "modified": "2019-07-23 19:33:34.913170",
   "modified_by": "chabad360@gmail.com",
   "name": "Contact-nickname",
   "no_copy": 0,
   "options": null,
   "owner": "chabad360@gmail.com",
   "parent": null,
   "parentfield": null,
   "parenttype": null,
   "permlevel": 0,
   "precision": "",
   "print_hide": 0,
   "print_hide_if_no_value": 0,
   "print_width": null,
   "read_only": 0,
   "report_hide": 0,
   "reqd": 0,
   "search_index": 0,
   "translatable": 1,
   "unique": 0,
   "width": null
  },
  {
   "_assign": null,
   "_comments": null,
   "_liked_by": null,
   "_user_tags": null,
   "allow_on_submit": 0,
   "bold": 0,
   "collapsible": 0,
   "collapsible_depends_on": null,
   "columns": 0,
   "creation": "2019-08-04 21:22:32.908506",
   "default": null,
   "depends_on": "",
   "description": null,
   "docstatus": 0,
   "dt": "Contact",
   "fetch_from": null,
   "fetch_if_empty": 0,
   "fieldname": "is_deceased",
   "fieldtype": "Check",
   "hidden": 0,
   "idx": 19,
   "ignore_user_permissions": 0,
   "ignore_xss_filter": 0,
   "in_global_search": 0,
   "in_list_view": 0,
   "in_standard_filter": 0,
   "insert_after": "column_break_14",
   "label": "Is Deceased",
   "modified": "2019-08-04 21:22:32.908506",
   "modified_by": "chabad360@gmail.com",
   "name": "Contact-is_deceased",
   "no_copy": 0,
   "options": null,
   "owner": "chabad360@gmail.com",
   "parent": null,
   "parentfield": null,
   "parenttype": null,
   "permlevel": 0,
   "precision": "",
   "print_hide": 0,
   "print_hide_if_no_value": 0,
   "print_width": null,
   "read_only": 0,
   "report_hide": 0,
   "reqd": 0,
   "search_index": 0,
   "translatable": 0,
   "unique": 0,
   "width": null
  },
  {
   "_assign": null,
   "_comments": null,
   "_liked_by": null,
   "_user_tags": null,
   "allow_on_submit": 0,
   "bold": 0,
   "collapsible": 0,
   "collapsible_depends_on": null,
   "columns": 0,
   "creation": "2019-08-04 21:27:37.540661",
   "default": null,
   "depends_on": null,
   "description": null,
   "docstatus": 0,
   "dt": "Contact",
   "fetch_from": null,
   "fetch_if_empty": 0,
   "fieldname": "birthdate",
   "fieldtype": "Date",
   "hidden": 0,
   "idx": 17,
   "ignore_user_permissions": 0,
   "ignore_xss_filter": 0,
   "in_global_search": 0,
   "in_list_view": 0,
   "in_standard_filter": 0,
   "insert_after": "personal_info",
   "label": "Birthdate",
   "modified": "2019-08-04 21:27:37.540661",
   "modified_by": "chabad360@gmail.com",
   "name": "Contact-birthdate",
   "no_copy": 0,
   "options": null,
   "owner": "chabad360@gmail.com",
   "parent": null,
   "parentfield": null,
   "parenttype": null,
   "permlevel": 0,
   "precision": "",
   "print_hide": 0,
   "print_hide_if_no_value": 0,
   "print_width": null,
   "read_only": 0,
   "report_hide": 0,
   "reqd": 0,
   "search_index": 0,
   "translatable": 0,
   "unique": 0,
   "width": null
  },
  {
   "_assign": null,
   "_comments": null,
   "_liked_by": null,
   "_user_tags": null,
   "allow_on_submit": 0,
   "bold": 0,
   "collapsible": 0,
   "collapsible_depends_on": null,
   "columns": 0,
   "creation": "2019-08-04 21:30:40.554721",
   "default": null,
   "depends_on": null,
   "description": null,
   "docstatus": 0,
   "dt": "Contact",
   "fetch_from": null,
   "fetch_if_empty": 0,
   "fieldname": "last_contacted_on",
   "fieldtype": "Date",
   "hidden": 0,
   "idx": 27,
   "ignore_user_permissions": 0,
   "ignore_xss_filter": 0,
   "in_global_search": 0,
   "in_list_view": 1,
   "in_standard_filter": 1,
   "insert_after": "unsubscribed",
   "label": "Last Contacted On",
   "modified": "2019-08-04 21:30:40.554721",
   "modified_by": "chabad360@gmail.com",
   "name": "Contact-last_contacted_on",
   "no_copy": 0,
   "options": null,
   "owner": "chabad360@gmail.com",
   "parent": null,
   "parentfield": null,
   "parenttype": null,
   "permlevel": 0,
   "precision": "",
   "print_hide": 0,
   "print_hide_if_no_value": 0,
   "print_width": null,
   "read_only": 0,
   "report_hide": 0,
   "reqd": 0,
   "search_index": 0,
   "translatable": 0,
   "unique": 0,
   "width": null
  }
 ],
 "custom_perms": [],
 "doctype": "Contact",
 "property_setters": [
  {
   "_assign": null,
   "_comments": null,
   "_liked_by": null,
   "_user_tags": null,
   "creation": "2019-08-04 21:31:30.373448",
   "default_value": null,
   "doc_type": "Contact",
   "docstatus": 0,
   "doctype_or_field": "DocType",
   "field_name": null,
   "idx": 0,
   "modified": "2019-08-04 21:31:30.373448",
   "modified_by": "chabad360@gmail.com",
   "name": "Contact-sort_field",
   "owner": "chabad360@gmail.com",
   "parent": null,
   "parentfield": null,
   "parenttype": null,
   "property": "sort_field",
   "property_type": "Data",
   "value": "last_contacted_on"
  },
  {
   "_assign": null,
   "_comments": null,
   "_liked_by": null,
   "_user_tags": null,
   "creation": "2019-07-23 20:15:40.471610",
   "default_value": null,
   "doc_type": "Contact",
   "docstatus": 0,
   "doctype_or_field": "DocField",
   "field_name": "gender",
   "idx": 0,
   "modified": "2019-07-23 20:15:40.471610",
   "modified_by": "chabad360@gmail.com",
   "name": "Contact-gender-bold",
   "owner": "chabad360@gmail.com",
   "parent": null,
   "parentfield": null,
   "parenttype": null,
   "property": "bold",
   "property_type": "Check",
   "value": "1"
  }
 ],
 "sync_on_migrate": 1
}